{
  "kind": "UserList",
  "data": {
    "children": [
      {
        "date": 1620649640.0,
        "rel_id": "r9_2jqowo2",
        "name": "some-friend",
        "id": "t2_dk3j20m"
      }
    ]
  }
}
