{
  "kind": "t3",
  "data": {
    "author_flair_background_color": "",
    "approved_at_utc": null,
    "subreddit": "<SUBREDDIT>",
    "selftext": "My delightful poll",
    "user_reports": [],
    "saved": false,
    "mod_reason_title": null,
    "gilded": 0,
    "clicked": false,
    "title": "Test Poll",
    "link_flair_richtext": [{ "e": "text", "t": "Test flair text" }],
    "subreddit_name_prefixed": "r/<SUBREDDIT>",
    "hidden": false,
    "pwls": null,
    "link_flair_css_class": "",
    "downs": 0,
    "thumbnail_height": null,
    "parent_whitelist_status": null,
    "hide_score": false,
    "name": "t3_x20fvo",
    "quarantine": false,
    "link_flair_text_color": "dark",
    "upvote_ratio": 1.0,
    "ignore_reports": false,
    "subreddit_type": "restricted",
    "ups": 1,
    "domain": "self.<SUBREDDIT>",
    "media_embed": {},
    "thumbnail_width": null,
    "author_flair_template_id": null,
    "is_original_content": false,
    "author_fullname": "t2_14g6bq9",
    "secure_media": null,
    "is_reddit_media_domain": false,
    "is_meta": false,
    "category": null,
    "secure_media_embed": {},
    "link_flair_text": "Test flair text",
    "can_mod_post": true,
    "score": 1,
    "approved_by": null,
    "author_premium": false,
    "thumbnail": "self",
    "edited": false,
    "author_flair_css_class": "",
    "author_flair_richtext": [{ "e": "text", "t": "" }],
    "gildings": {},
    "content_categories": null,
    "is_self": true,
    "mod_note": null,
    "created": 1588171169.0,
    "link_flair_type": "richtext",
    "wls": null,
    "removed_by_category": null,
    "banned_by": null,
    "author_flair_type": "richtext",
    "total_awards_received": 0,
    "allow_live_comments": false,
    "selftext_html": "",
    "likes": true,
    "suggested_sort": null,
    "banned_at_utc": null,
    "view_count": null,
    "archived": false,
    "no_follow": false,
    "spam": false,
    "is_crosspostable": true,
    "pinned": false,
    "over_18": false,
    "all_awardings": [],
    "awarders": [],
    "media_only": false,
    "link_flair_template_id": "9ac711a4-1ddf-11e9-aaaa-0e22784c70ce",
    "can_gild": false,
    "removed": false,
    "spoiler": false,
    "locked": false,
    "author_flair_text": "",
    "treatment_tags": [],
    "rte_mode": "markdown",
    "visited": false,
    "removed_by": null,
    "num_reports": 0,
    "distinguished": null,
    "subreddit_id": "t5_0zl3s",
    "mod_reason_by": null,
    "removal_reason": null,
    "link_flair_background_color": "#ffd635",
    "id": "x20fvo",
    "is_robot_indexable": true,
    "num_duplicates": 0,
    "report_reasons": [],
    "author": "<USERNAME>",
    "discussion_type": null,
    "num_comments": 0,
    "send_replies": true,
    "media": null,
    "contest_mode": false,
    "poll_data": {
      "user_selection": null,
      "options": [
        { "text": "Yes", "vote_count": 0, "id": "577567" },
        { "text": "No", "vote_count": 0, "id": "577568" }
      ],
      "voting_end_timestamp": 1588660769955,
      "total_vote_count": 0
    },
    "author_patreon_flair": false,
    "approved": false,
    "author_flair_text_color": "dark",
    "permalink": "/r/<SUBREDDIT>/comments/x20fvo/test_poll/",
    "whitelist_status": null,
    "stickied": false,
    "url": "https://www.reddit.com/r/<SUBREDDIT>/comments/x20fvo/test_poll/",
    "subreddit_subscribers": 1,
    "created_utc": 1588142369.0,
    "num_crossposts": 0,
    "mod_reports": [],
    "is_video": false
  }
}
