{
  "kind": "t3",
  "data": {
    "approved_at_utc": null,
    "subreddit": "<SUBREDDIT>",
    "selftext": "",
    "author_fullname": "t2_apyzf6ma",
    "saved": false,
    "mod_reason_title": null,
    "gilded": 0,
    "clicked": false,
    "title": "<TEST_TITLE>",
    "link_flair_richtext": [],
    "subreddit_name_prefixed": "r/<SUBREDDIT>",
    "hidden": false,
    "pwls": 6,
    "link_flair_css_class": null,
    "downs": 0,
    "thumbnail_height": 140,
    "top_awarded_type": null,
    "hide_score": false,
    "name": "t3_gu20dd",
    "quarantine": false,
    "link_flair_text_color": "dark",
    "upvote_ratio": 0.94,
    "author_flair_background_color": null,
    "subreddit_type": "public",
    "ups": 766,
    "total_awards_received": 5,
    "media_embed": {},
    "thumbnail_width": 140,
    "author_flair_template_id": null,
    "is_original_content": false,
    "user_reports": [],
    "secure_media": null,
    "is_reddit_media_domain": false,
    "is_meta": false,
    "category": null,
    "secure_media_embed": {},
    "link_flair_text": null,
    "can_mod_post": false,
    "score": 766,
    "approved_by": null,
    "author_premium": false,
    "thumbnail": "default",
    "edited": false,
    "author_flair_css_class": null,
    "author_flair_richtext": [],
    "gildings": { "gid_1": 1 },
    "post_hint": "link",
    "content_categories": null,
    "is_self": false,
    "mod_note": null,
    "created": 1621071082.0,
    "link_flair_type": "text",
    "wls": 6,
    "removed_by_category": null,
    "banned_by": null,
    "author_flair_type": "text",
    "domain": "EXAMPLE.com",
    "allow_live_comments": true,
    "selftext_html": null,
    "likes": false,
    "suggested_sort": null,
    "banned_at_utc": null,
    "url_overridden_by_dest": "https://EXAMPLE.com/",
    "view_count": null,
    "archived": false,
    "no_follow": false,
    "is_crosspostable": true,
    "pinned": false,
    "over_18": false,
    "preview": {
      "images": [
        {
          "source": {
            "url": "https://external-preview.redd.it/Y9JVej1vP5IN2Ty6fBDnX4wRFyZ2J_OHELULoZcnQ-s.jpg?auto=webp&amp;s=7540ec77c2abc79540eb70975d55087af0bd4f95",
            "width": 350,
            "height": 495
          },
          "resolutions": [
            {
              "url": "https://external-preview.redd.it/Y9JVej1vP5IN2Ty6fBDnX4wRFyZ2J_OHELULoZcnQ-s.jpg?width=108&amp;crop=smart&amp;auto=webp&amp;s=52a86560f439e94697be8a36e4413d4bdecf2c06",
              "width": 108,
              "height": 152
            },
            {
              "url": "https://external-preview.redd.it/Y9JVej1vP5IN2Ty6fBDnX4wRFyZ2J_OHELULoZcnQ-s.jpg?width=216&amp;crop=smart&amp;auto=webp&amp;s=6bd8b4791be0d70d354c45381162d8e24b5382c0",
              "width": 216,
              "height": 305
            },
            {
              "url": "https://external-preview.redd.it/Y9JVej1vP5IN2Ty6fBDnX4wRFyZ2J_OHELULoZcnQ-s.jpg?width=320&amp;crop=smart&amp;auto=webp&amp;s=d16e2fb76b99bcb04fb0aab7ff9dc4b933c32def",
              "width": 320,
              "height": 452
            }
          ],
          "variants": {},
          "id": "4UNmijwVBnMCbq9Nwnb80mQCXmdxlGqbohqvoMbFeFQ"
        }
      ],
      "enabled": false
    },
    "all_awardings": [
      {
        "giver_coin_reward": null,
        "subreddit_id": null,
        "is_new": false,
        "days_of_drip_extension": 0,
        "coin_price": 125,
        "id": "award_5f123e3d-4f48-42f4-9c11-e98b566d5897",
        "penny_donate": null,
        "award_sub_type": "GLOBAL",
        "coin_reward": 0,
        "icon_url": "https://i.redd.it/award_images/t5_22cerq/5izbv4fn0md41_Wholesome.png",
        "days_of_premium": 0,
        "tiers_by_required_awardings": null,
        "resized_icons": [
          {
            "url": "https://preview.redd.it/award_images/t5_22cerq/5izbv4fn0md41_Wholesome.png?width=16&amp;height=16&amp;auto=webp&amp;s=92932f465d58e4c16b12b6eac4ca07d27e3d11c0",
            "width": 16,
            "height": 16
          },
          {
            "url": "https://preview.redd.it/award_images/t5_22cerq/5izbv4fn0md41_Wholesome.png?width=32&amp;height=32&amp;auto=webp&amp;s=d11484a208d68a318bf9d4fcf371171a1cb6a7ef",
            "width": 32,
            "height": 32
          },
          {
            "url": "https://preview.redd.it/award_images/t5_22cerq/5izbv4fn0md41_Wholesome.png?width=48&amp;height=48&amp;auto=webp&amp;s=febdf28b6f39f7da7eb1365325b85e0bb49a9f63",
            "width": 48,
            "height": 48
          },
          {
            "url": "https://preview.redd.it/award_images/t5_22cerq/5izbv4fn0md41_Wholesome.png?width=64&amp;height=64&amp;auto=webp&amp;s=b4406a2d88bf86fa3dc8a45aacf7e0c7bdccc4fb",
            "width": 64,
            "height": 64
          },
          {
            "url": "https://preview.redd.it/award_images/t5_22cerq/5izbv4fn0md41_Wholesome.png?width=128&amp;height=128&amp;auto=webp&amp;s=19555b13e3e196b62eeb9160d1ac1d1b372dcb0b",
            "width": 128,
            "height": 128
          }
        ],
        "icon_width": 2048,
        "static_icon_width": 2048,
        "start_date": null,
        "is_enabled": true,
        "awardings_required_to_grant_benefits": null,
        "description": "When you come across a feel-good thing.",
        "end_date": null,
        "subreddit_coin_reward": 0,
        "count": 1,
        "static_icon_height": 2048,
        "name": "Wholesome",
        "resized_static_icons": [
          {
            "url": "https://preview.redd.it/award_images/t5_22cerq/5izbv4fn0md41_Wholesome.png?width=16&amp;height=16&amp;auto=webp&amp;s=92932f465d58e4c16b12b6eac4ca07d27e3d11c0",
            "width": 16,
            "height": 16
          },
          {
            "url": "https://preview.redd.it/award_images/t5_22cerq/5izbv4fn0md41_Wholesome.png?width=32&amp;height=32&amp;auto=webp&amp;s=d11484a208d68a318bf9d4fcf371171a1cb6a7ef",
            "width": 32,
            "height": 32
          },
          {
            "url": "https://preview.redd.it/award_images/t5_22cerq/5izbv4fn0md41_Wholesome.png?width=48&amp;height=48&amp;auto=webp&amp;s=febdf28b6f39f7da7eb1365325b85e0bb49a9f63",
            "width": 48,
            "height": 48
          },
          {
            "url": "https://preview.redd.it/award_images/t5_22cerq/5izbv4fn0md41_Wholesome.png?width=64&amp;height=64&amp;auto=webp&amp;s=b4406a2d88bf86fa3dc8a45aacf7e0c7bdccc4fb",
            "width": 64,
            "height": 64
          },
          {
            "url": "https://preview.redd.it/award_images/t5_22cerq/5izbv4fn0md41_Wholesome.png?width=128&amp;height=128&amp;auto=webp&amp;s=19555b13e3e196b62eeb9160d1ac1d1b372dcb0b",
            "width": 128,
            "height": 128
          }
        ],
        "icon_format": null,
        "icon_height": 2048,
        "penny_price": null,
        "award_type": "global",
        "static_icon_url": "https://i.redd.it/award_images/t5_22cerq/5izbv4fn0md41_Wholesome.png"
      },
      {
        "giver_coin_reward": null,
        "subreddit_id": null,
        "is_new": false,
        "days_of_drip_extension": 0,
        "coin_price": 100,
        "id": "gid_1",
        "penny_donate": null,
        "award_sub_type": "GLOBAL",
        "coin_reward": 0,
        "icon_url": "https://www.redditstatic.com/gold/awards/icon/silver_512.png",
        "days_of_premium": 0,
        "tiers_by_required_awardings": null,
        "resized_icons": [
          {
            "url": "https://www.redditstatic.com/gold/awards/icon/silver_16.png",
            "width": 16,
            "height": 16
          },
          {
            "url": "https://www.redditstatic.com/gold/awards/icon/silver_32.png",
            "width": 32,
            "height": 32
          },
          {
            "url": "https://www.redditstatic.com/gold/awards/icon/silver_48.png",
            "width": 48,
            "height": 48
          },
          {
            "url": "https://www.redditstatic.com/gold/awards/icon/silver_64.png",
            "width": 64,
            "height": 64
          },
          {
            "url": "https://www.redditstatic.com/gold/awards/icon/silver_128.png",
            "width": 128,
            "height": 128
          }
        ],
        "icon_width": 512,
        "static_icon_width": 512,
        "start_date": null,
        "is_enabled": true,
        "awardings_required_to_grant_benefits": null,
        "description": "Shows the Silver Award... and that's it.",
        "end_date": null,
        "subreddit_coin_reward": 0,
        "count": 1,
        "static_icon_height": 512,
        "name": "Silver",
        "resized_static_icons": [
          {
            "url": "https://www.redditstatic.com/gold/awards/icon/silver_16.png",
            "width": 16,
            "height": 16
          },
          {
            "url": "https://www.redditstatic.com/gold/awards/icon/silver_32.png",
            "width": 32,
            "height": 32
          },
          {
            "url": "https://www.redditstatic.com/gold/awards/icon/silver_48.png",
            "width": 48,
            "height": 48
          },
          {
            "url": "https://www.redditstatic.com/gold/awards/icon/silver_64.png",
            "width": 64,
            "height": 64
          },
          {
            "url": "https://www.redditstatic.com/gold/awards/icon/silver_128.png",
            "width": 128,
            "height": 128
          }
        ],
        "icon_format": null,
        "icon_height": 512,
        "penny_price": null,
        "award_type": "global",
        "static_icon_url": "https://www.redditstatic.com/gold/awards/icon/silver_512.png"
      },
      {
        "giver_coin_reward": 0,
        "subreddit_id": null,
        "is_new": false,
        "days_of_drip_extension": 0,
        "coin_price": 80,
        "id": "award_8352bdff-3e03-4189-8a08-82501dd8f835",
        "penny_donate": 0,
        "award_sub_type": "GLOBAL",
        "coin_reward": 0,
        "icon_url": "https://i.redd.it/award_images/t5_q0gj4/ks45ij6w05f61_oldHugz.png",
        "days_of_premium": 0,
        "tiers_by_required_awardings": null,
        "resized_icons": [
          {
            "url": "https://preview.redd.it/award_images/t5_q0gj4/ks45ij6w05f61_oldHugz.png?width=16&amp;height=16&amp;auto=webp&amp;s=73a23bf7f08b633508dedf457f2704c522b94a04",
            "width": 16,
            "height": 16
          },
          {
            "url": "https://preview.redd.it/award_images/t5_q0gj4/ks45ij6w05f61_oldHugz.png?width=32&amp;height=32&amp;auto=webp&amp;s=50f2f16e71d2929e3d7275060af3ad6b851dbfb1",
            "width": 32,
            "height": 32
          },
          {
            "url": "https://preview.redd.it/award_images/t5_q0gj4/ks45ij6w05f61_oldHugz.png?width=48&amp;height=48&amp;auto=webp&amp;s=ca487311563425e195699a4d7e4c57a98cbfde8b",
            "width": 48,
            "height": 48
          },
          {
            "url": "https://preview.redd.it/award_images/t5_q0gj4/ks45ij6w05f61_oldHugz.png?width=64&amp;height=64&amp;auto=webp&amp;s=7b4eedcffb1c09a826e7837532c52979760f1d2b",
            "width": 64,
            "height": 64
          },
          {
            "url": "https://preview.redd.it/award_images/t5_q0gj4/ks45ij6w05f61_oldHugz.png?width=128&amp;height=128&amp;auto=webp&amp;s=e4d5ab237eb71a9f02bb3bf9ad5ee43741918d6c",
            "width": 128,
            "height": 128
          }
        ],
        "icon_width": 2048,
        "static_icon_width": 2048,
        "start_date": null,
        "is_enabled": true,
        "awardings_required_to_grant_benefits": null,
        "description": "Everything is better with a good hug",
        "end_date": null,
        "subreddit_coin_reward": 0,
        "count": 3,
        "static_icon_height": 2048,
        "name": "Hugz",
        "resized_static_icons": [
          {
            "url": "https://preview.redd.it/award_images/t5_q0gj4/fpm0r5ryq1361_PolarHugs.png?width=16&amp;height=16&amp;auto=webp&amp;s=69997ace3ef4ffc099b81d774c2c8f1530602875",
            "width": 16,
            "height": 16
          },
          {
            "url": "https://preview.redd.it/award_images/t5_q0gj4/fpm0r5ryq1361_PolarHugs.png?width=32&amp;height=32&amp;auto=webp&amp;s=e9519d1999ef9dce5c8a9f59369cb92f52d95319",
            "width": 32,
            "height": 32
          },
          {
            "url": "https://preview.redd.it/award_images/t5_q0gj4/fpm0r5ryq1361_PolarHugs.png?width=48&amp;height=48&amp;auto=webp&amp;s=f076c6434fb2d2f9075991810fd845c40fa73fc6",
            "width": 48,
            "height": 48
          },
          {
            "url": "https://preview.redd.it/award_images/t5_q0gj4/fpm0r5ryq1361_PolarHugs.png?width=64&amp;height=64&amp;auto=webp&amp;s=85527145e0c4b754306a30df29e584fd16187636",
            "width": 64,
            "height": 64
          },
          {
            "url": "https://preview.redd.it/award_images/t5_q0gj4/fpm0r5ryq1361_PolarHugs.png?width=128&amp;height=128&amp;auto=webp&amp;s=b8843cdf82c3b741d7af057c14076dcd2621e811",
            "width": 128,
            "height": 128
          }
        ],
        "icon_format": "PNG",
        "icon_height": 2048,
        "penny_price": 0,
        "award_type": "global",
        "static_icon_url": "https://i.redd.it/award_images/t5_q0gj4/fpm0r5ryq1361_PolarHugs.png"
      }
    ],
    "awarders": [],
    "media_only": false,
    "can_gild": true,
    "spoiler": false,
    "locked": false,
    "author_flair_text": null,
    "treatment_tags": [],
    "visited": false,
    "removed_by": null,
    "num_reports": null,
    "distinguished": null,
    "subreddit_id": "t5_2fwo",
    "mod_reason_by": null,
    "removal_reason": null,
    "link_flair_background_color": "",
    "id": "ncnza3",
    "is_robot_indexable": true,
    "report_reasons": null,
    "author": "marcusthethinker",
    "discussion_type": null,
    "num_comments": 35,
    "send_replies": true,
    "whitelist_status": "all_ads",
    "contest_mode": false,
    "mod_reports": [],
    "author_patreon_flair": false,
    "author_flair_text_color": null,
    "permalink": "/r/<SUBREDDI>/comments/ncnza3/<SUBMISSION>/",
    "parent_whitelist_status": "all_ads",
    "stickied": false,
    "url": "https://EXAMPLE.com/",
    "subreddit_subscribers": 3372076,
    "created_utc": 1621042282.0,
    "num_crossposts": 1,
    "media": null,
    "is_video": false
  }
}
